Gathering Multiple Subject Queries with Large Numbers of Authors
…
  tail(sort(table(MainEntry$`fund-sponsor`)))
  
  funderPoland <- filter(
    MainEntry, 
    `fund-sponsor` == "Ministerstwo Nauki i Szkolnictwa Wyższego" )  
  dim(funderPoland)
  
  osuFunders <- MainEntry %>%
    group_by(`fund-sponsor`) %>%
    tally() %>% 
    arrange(desc(n))
  osuFunders
}
#> # A tibble: 25 x 2
#>    `fund-sponsor`                                    n
#>    <chr>                                         <int>
#>  1 Ministerstwo Nauki i Szkolnictwa Wyższego        22
#>  2 <NA>                                             14
#>  3 National Science Foundation                       4
#>  4 Australian Research Council                       2
#>  5 Natural Science Foundation of Fujian Province     2
#>  6 Oklahoma State University                         2
#>  7 University of Oklahoma Health Sciences Center     2
#>  8 Advanced Scientific Computing Research            1
#>  9 Austrian Science Fund                             1
#> 10 China Scholarship Council                         1
#> # … with 15 more rows
…
